src/mux64.vcd
$date
	Tue Jun 23 21:16:26 2026
$end
$version
	Icarus Verilog
$end
$timescale
	1ps
$end
$scope module tb_mux64 $end
$var wire 1 ! out $end
$var reg 64 " in [63:0] $end
$var reg 6 # sel [5:0] $end
$var integer 32 $ i [31:0] $end
$scope module uut $end
$var wire 64 % in [63:0] $end
$var wire 6 & sel [5:0] $end
$var wire 1 ! out $end
$upscope $end
$upscope $end
$enddefinitions $end
$comment Show the parameter values. $end
$dumpall
$end
#0
$dumpvars
bx &
b1010010110100101101001011010010101011010010110100101101001011010 %
bx $
bx #
b1010010110100101101001011010010101011010010110100101101001011010 "
x!
$end
#10000
0!
b0 #
b0 &
b0 $
#15000
1!
b1 #
b1 &
b1 $
#20000
0!
b10 #
b10 &
b10 $
#25000
1!
b11 #
b11 &
b11 $
#30000
b100 #
b100 &
b100 $
#35000
0!
b101 #
b101 &
b101 $
#40000
1!
b110 #
b110 &
b110 $
#45000
0!
b111 #
b111 &
b111 $
#50000
b1000 #
b1000 &
b1000 $
#55000
1!
b1001 #
b1001 &
b1001 $
#60000
0!
b1010 #
b1010 &
b1010 $
#65000
1!
b1011 #
b1011 &
b1011 $
#70000
b1100 #
b1100 &
b1100 $
#75000
0!
b1101 #
b1101 &
b1101 $
#80000
1!
b1110 #
b1110 &
b1110 $
#85000
0!
b1111 #
b1111 &
b1111 $
#90000
b10000 #
b10000 &
b10000 $
#95000
1!
b10001 #
b10001 &
b10001 $
#100000
0!
b10010 #
b10010 &
b10010 $
#105000
1!
b10011 #
b10011 &
b10011 $
#110000
b10100 #
b10100 &
b10100 $
#115000
0!
b10101 #
b10101 &
b10101 $
#120000
1!
b10110 #
b10110 &
b10110 $
#125000
0!
b10111 #
b10111 &
b10111 $
#130000
b11000 #
b11000 &
b11000 $
#135000
1!
b11001 #
b11001 &
b11001 $
#140000
0!
b11010 #
b11010 &
b11010 $
#145000
1!
b11011 #
b11011 &
b11011 $
#150000
b11100 #
b11100 &
b11100 $
#155000
0!
b11101 #
b11101 &
b11101 $
#160000
1!
b11110 #
b11110 &
b11110 $
#165000
0!
b11111 #
b11111 &
b11111 $
#170000
1!
b100000 #
b100000 &
b100000 $
#175000
0!
b100001 #
b100001 &
b100001 $
#180000
1!
b100010 #
b100010 &
b100010 $
#185000
0!
b100011 #
b100011 &
b100011 $
#190000
b100100 #
b100100 &
b100100 $
#195000
1!
b100101 #
b100101 &
b100101 $
#200000
0!
b100110 #
b100110 &
b100110 $
#205000
1!
b100111 #
b100111 &
b100111 $
#210000
b101000 #
b101000 &
b101000 $
#215000
0!
b101001 #
b101001 &
b101001 $
#220000
1!
b101010 #
b101010 &
b101010 $
#225000
0!
b101011 #
b101011 &
b101011 $
#230000
b101100 #
b101100 &
b101100 $
#235000
1!
b101101 #
b101101 &
b101101 $
#240000
0!
b101110 #
b101110 &
b101110 $
#245000
1!
b101111 #
b101111 &
b101111 $
#250000
b110000 #
b110000 &
b110000 $
#255000
0!
b110001 #
b110001 &
b110001 $
#260000
1!
b110010 #
b110010 &
b110010 $
#265000
0!
b110011 #
b110011 &
b110011 $
#270000
b110100 #
b110100 &
b110100 $
#275000
1!
b110101 #
b110101 &
b110101 $
#280000
0!
b110110 #
b110110 &
b110110 $
#285000
1!
b110111 #
b110111 &
b110111 $
#290000
b111000 #
b111000 &
b111000 $
#295000
0!
b111001 #
b111001 &
b111001 $
#300000
1!
b111010 #
b111010 &
b111010 $
#305000
0!
b111011 #
b111011 &
b111011 $
#310000
b111100 #
b111100 &
b111100 $
#315000
1!
b111101 #
b111101 &
b111101 $
#320000
0!
b111110 #
b111110 &
b111110 $
#325000
1!
b111111 #
b111111 &
b111111 $
#330000
b1101111010101101101111101110111111001010111111101011101010111110 "
b1101111010101101101111101110111111001010111111101011101010111110 %
b1000000 $
#340000
0!
b0 #
b0 &
b0 $
#345000
1!
b1 #
b1 &
b1 $
#350000
b10 #
b10 &
b10 $
#355000
b11 #
b11 &
b11 $
#360000
b100 #
b100 &
b100 $
#365000
b101 #
b101 &
b101 $
#370000
0!
b110 #
b110 &
b110 $
#375000
1!
b111 #
b111 &
b111 $
#380000
0!
b1000 #
b1000 &
b1000 $
#385000
1!
b1001 #
b1001 &
b1001 $
#390000
0!
b1010 #
b1010 &
b1010 $
#395000
1!
b1011 #
b1011 &
b1011 $
#400000
b1100 #
b1100 &
b1100 $
#405000
b1101 #
b1101 &
b1101 $
#410000
0!
b1110 #
b1110 &
b1110 $
#415000
1!
b1111 #
b1111 &
b1111 $
#420000
0!
b10000 #
b10000 &
b10000 $
#425000
1!
b10001 #
b10001 &
b10001 $
#430000
b10010 #
b10010 &
b10010 $
#435000
b10011 #
b10011 &
b10011 $
#440000
b10100 #
b10100 &
b10100 $
#445000
b10101 #
b10101 &
b10101 $
#450000
b10110 #
b10110 &
b10110 $
#455000
b10111 #
b10111 &
b10111 $
#460000
0!
b11000 #
b11000 &
b11000 $
#465000
1!
b11001 #
b11001 &
b11001 $
#470000
0!
b11010 #
b11010 &
b11010 $
#475000
1!
b11011 #
b11011 &
b11011 $
#480000
0!
b11100 #
b11100 &
b11100 $
#485000
b11101 #
b11101 &
b11101 $
#490000
1!
b11110 #
b11110 &
b11110 $
#495000
b11111 #
b11111 &
b11111 $
#500000
b100000 #
b100000 &
b100000 $
#505000
b100001 #
b100001 &
b100001 $
#510000
b100010 #
b100010 &
b100010 $
#515000
b100011 #
b100011 &
b100011 $
#520000
0!
b100100 #
b100100 &
b100100 $
#525000
1!
b100101 #
b100101 &
b100101 $
#530000
b100110 #
b100110 &
b100110 $
#535000
b100111 #
b100111 &
b100111 $
#540000
0!
b101000 #
b101000 &
b101000 $
#545000
1!
b101001 #
b101001 &
b101001 $
#550000
b101010 #
b101010 &
b101010 $
#555000
b101011 #
b101011 &
b101011 $
#560000
b101100 #
b101100 &
b101100 $
#565000
b101101 #
b101101 &
b101101 $
#570000
0!
b101110 #
b101110 &
b101110 $
#575000
1!
b101111 #
b101111 &
b101111 $
#580000
b110000 #
b110000 &
b110000 $
#585000
0!
b110001 #
b110001 &
b110001 $
#590000
1!
b110010 #
b110010 &
b110010 $
#595000
b110011 #
b110011 &
b110011 $
#600000
0!
b110100 #
b110100 &
b110100 $
#605000
1!
b110101 #
b110101 &
b110101 $
#610000
0!
b110110 #
b110110 &
b110110 $
#615000
1!
b110111 #
b110111 &
b110111 $
#620000
0!
b111000 #
b111000 &
b111000 $
#625000
1!
b111001 #
b111001 &
b111001 $
#630000
b111010 #
b111010 &
b111010 $
#635000
b111011 #
b111011 &
b111011 $
#640000
b111100 #
b111100 &
b111100 $
#645000
0!
b111101 #
b111101 &
b111101 $
#650000
1!
b111110 #
b111110 &
b111110 $
#655000
b111111 #
b111111 &
b111111 $
#660000
b1000000 $
